{
    "data": [
        {
            "id": "1",
            "comercio": "Zapatillas",
            "cuit": "20123475691823",
            "concepto1": 18,
            "concepto2": 20,
            "concepto3": 31,
            "concepto4": 17,
            "balanceActual": 100000,
            "activo": 1,
            "ultimaVenta": "10/03/2022"
          }, {
            "id": "2",
            "comercio": "Pelotas",
            "cuit": "91824685213486",
            "concepto1": 10,
            "concepto2": 5,
            "concepto3": 17,
            "concepto4": 24,
            "balanceActual": 500,
            "activo": 0,
            "ultimaVenta": "12/03/2023"
          },
          {
            "id": "3",
            "comercio": "Gorras",
            "cuit": "20123475691823",
            "concepto1": 18,
            "concepto2": 20,
            "concepto3": 31,
            "concepto4": 17,
            "balanceActual": 100000,
            "activo": 1,
            "ultimaVenta": "10/03/2022"
          }, {
            "id": "4",
            "comercio": "Medias",
            "cuit": "91824685213486",
            "concepto1": 10,
            "concepto2": 5,
            "concepto3": 17,
            "concepto4": 24,
            "balanceActual": 500,
            "activo": 0,
            "ultimaVenta": "12/03/2023"
          },
          {
            "id": "5",
            "comercio": "Juguetes",
            "cuit": "20123475691823",
            "concepto1": 18,
            "concepto2": 20,
            "concepto3": 31,
            "concepto4": 17,
            "balanceActual": 100000,
            "activo": 1,
            "ultimaVenta": "10/03/2022"
          }, {
            "id": "6",
            "comercio": "Cocinas",
            "cuit": "91824685213486",
            "concepto1": 10,
            "concepto2": 5,
            "concepto3": 17,
            "concepto4": 24,
            "balanceActual": 500,
            "activo": 0,
            "ultimaVenta": "12/03/2023"
          },
          {
            "id": "7",
            "comercio": "Kukamonga",
            "cuit": "20123475691823",
            "concepto1": 18,
            "concepto2": 20,
            "concepto3": 31,
            "concepto4": 17,
            "balanceActual": 100000,
            "activo": 1,
            "ultimaVenta": "10/03/2022"
          }, {
            "id": "8",
            "comercio": "Billeteras",
            "cuit": "91824685213486",
            "concepto1": 10,
            "concepto2": 5,
            "concepto3": 17,
            "concepto4": 24,
            "balanceActual": 500,
            "activo": 0,
            "ultimaVenta": "12/03/2023"
          },
          {
            "id": "9",
            "comercio": "Carteras",
            "cuit": "20123475691823",
            "concepto1": 18,
            "concepto2": 20,
            "concepto3": 31,
            "concepto4": 17,
            "balanceActual": 100000,
            "activo": 1,
            "ultimaVenta": "10/03/2022"
          }, {
            "id": "10",
            "comercio": "Escritorios",
            "cuit": "91824685213486",
            "concepto1": 10,
            "concepto2": 5,
            "concepto3": 17,
            "concepto4": 24,
            "balanceActual": 500,
            "activo": 0,
            "ultimaVenta": "12/03/2023"
          },
          {
            "id": "11",
            "comercio": "Zapatillas",
            "cuit": "20123475691823",
            "concepto1": 18,
            "concepto2": 20,
            "concepto3": 31,
            "concepto4": 17,
            "balanceActual": 100000,
            "activo": 1,
            "ultimaVenta": "10/03/2022"
          }, {
            "id": "12",
            "comercio": "Pelotas",
            "cuit": "91824685213486",
            "concepto1": 10,
            "concepto2": 5,
            "concepto3": 17,
            "concepto4": 24,
            "balanceActual": 500,
            "activo": 0,
            "ultimaVenta": "12/03/2023"
          },
          {
            "id": "13",
            "comercio": "Gorras",
            "cuit": "20123475691823",
            "concepto1": 18,
            "concepto2": 20,
            "concepto3": 31,
            "concepto4": 17,
            "balanceActual": 100000,
            "activo": 1,
            "ultimaVenta": "10/03/2022"
          }, {
            "id": "14",
            "comercio": "Medias",
            "cuit": "91824685213486",
            "concepto1": 10,
            "concepto2": 5,
            "concepto3": 17,
            "concepto4": 24,
            "balanceActual": 500,
            "activo": 0,
            "ultimaVenta": "12/03/2023"
          },
          {
            "id": "15",
            "comercio": "Juguetes",
            "cuit": "20123475691823",
            "concepto1": 18,
            "concepto2": 20,
            "concepto3": 31,
            "concepto4": 17,
            "balanceActual": 100000,
            "activo": 1,
            "ultimaVenta": "10/03/2022"
          }, {
            "id": "16",
            "comercio": "Cocinas",
            "cuit": "91824685213486",
            "concepto1": 10,
            "concepto2": 5,
            "concepto3": 17,
            "concepto4": 24,
            "balanceActual": 500,
            "activo": 0,
            "ultimaVenta": "12/03/2023"
          },
          {
            "id": "17",
            "comercio": "Kukamonga",
            "cuit": "20123475691823",
            "concepto1": 18,
            "concepto2": 20,
            "concepto3": 31,
            "concepto4": 17,
            "balanceActual": 100000,
            "activo": 1,
            "ultimaVenta": "10/03/2022"
          }, {
            "id": "18",
            "comercio": "Billeteras",
            "cuit": "91824685213486",
            "concepto1": 10,
            "concepto2": 5,
            "concepto3": 17,
            "concepto4": 24,
            "balanceActual": 500,
            "activo": 0,
            "ultimaVenta": "12/03/2023"
          },
          {
            "id": "19",
            "comercio": "Carteras",
            "cuit": "20123475691823",
            "concepto1": 18,
            "concepto2": 20,
            "concepto3": 31,
            "concepto4": 17,
            "balanceActual": 100000,
            "activo": 1,
            "ultimaVenta": "10/03/2022"
          }, {
            "id": "20",
            "comercio": "Escritorios",
            "cuit": "91824685213486",
            "concepto1": 10,
            "concepto2": 5,
            "concepto3": 17,
            "concepto4": 24,
            "balanceActual": 500,
            "activo": 0,
            "ultimaVenta": "12/03/2023"
          },
          {
            "id": "21",
            "comercio": "Zapatillas",
            "cuit": "20123475691823",
            "concepto1": 18,
            "concepto2": 20,
            "concepto3": 31,
            "concepto4": 17,
            "balanceActual": 100000,
            "activo": 1,
            "ultimaVenta": "10/03/2022"
          }, {
            "id": "22",
            "comercio": "Pelotas",
            "cuit": "91824685213486",
            "concepto1": 10,
            "concepto2": 5,
            "concepto3": 17,
            "concepto4": 24,
            "balanceActual": 500,
            "activo": 0,
            "ultimaVenta": "12/03/2023"
          },
          {
            "id": "23",
            "comercio": "Gorras",
            "cuit": "20123475691823",
            "concepto1": 18,
            "concepto2": 20,
            "concepto3": 31,
            "concepto4": 17,
            "balanceActual": 100000,
            "activo": 1,
            "ultimaVenta": "10/03/2022"
          }, {
            "id": "24",
            "comercio": "Medias",
            "cuit": "91824685213486",
            "concepto1": 10,
            "concepto2": 5,
            "concepto3": 17,
            "concepto4": 24,
            "balanceActual": 500,
            "activo": 0,
            "ultimaVenta": "12/03/2023"
          },
          {
            "id": "25",
            "comercio": "Juguetes",
            "cuit": "20123475691823",
            "concepto1": 18,
            "concepto2": 20,
            "concepto3": 31,
            "concepto4": 17,
            "balanceActual": 100000,
            "activo": 1,
            "ultimaVenta": "10/03/2022"
          }, {
            "id": "26",
            "comercio": "Cocinas",
            "cuit": "91824685213486",
            "concepto1": 10,
            "concepto2": 5,
            "concepto3": 17,
            "concepto4": 24,
            "balanceActual": 500,
            "activo": 0,
            "ultimaVenta": "12/03/2023"
          },
          {
            "id": "27",
            "comercio": "Kukamonga",
            "cuit": "20123475691823",
            "concepto1": 18,
            "concepto2": 20,
            "concepto3": 31,
            "concepto4": 17,
            "balanceActual": 100000,
            "activo": 1,
            "ultimaVenta": "10/03/2022"
          }, {
            "id": "28",
            "comercio": "Billeteras",
            "cuit": "91824685213486",
            "concepto1": 10,
            "concepto2": 5,
            "concepto3": 17,
            "concepto4": 24,
            "balanceActual": 500,
            "activo": 0,
            "ultimaVenta": "12/03/2023"
          },
          {
            "id": "29",
            "comercio": "Carteras",
            "cuit": "20123475691823",
            "concepto1": 18,
            "concepto2": 20,
            "concepto3": 31,
            "concepto4": 17,
            "balanceActual": 100000,
            "activo": 1,
            "ultimaVenta": "10/03/2022"
          }, {
            "id": "30",
            "comercio": "Escritorios",
            "cuit": "91824685213486",
            "concepto1": 10,
            "concepto2": 5,
            "concepto3": 17,
            "concepto4": 24,
            "balanceActual": 500,
            "activo": 0,
            "ultimaVenta": "12/03/2023"
          }
    ],
    "page": 1,
    "pages": 1000000,
    "rowsPerPage": 10,
    "total": 10000000
}